[
	{
		"id": 13,
		"name": "Permanent Full Time",
		"order": 1
	},
	{
		"id": 14,
		"name": "Permanent Part Time",
		"order": 2
	},
	{
		"id": 15,
		"name": "Internship",
		"order": 3
	},
	{
		"id": 16,
		"name": "Volunteer",
		"order": 4
	},
	{
		"id": 17,
		"name": "Temporary Full Time",
		"order": 5
	},
	{
		"id": 18,
		"name": "Temporary Part Time",
		"order": 6
	},
	{
		"id": 19,
		"name": "Fixed Term Contract",
		"order": 7
	},
	{
		"id": 20,
		"name": "Placement Student",
		"order": 8
	},
	{
		"id": 21,
		"name": "Seasonal",
		"order": 9
	},
	{
		"id": 22,
		"name": "National Internship Scheme (Job Bridge)",
		"order": 10
	},
	{
		"id": 23,
		"name": "Work Placement Programme",
		"order": 11
	},
	{
		"id": 24,
		"name": "Maternity Cover Contract",
		"order": 12
	}
]