{
	"1200": "Accounting",
	"1203": "Banking & Financial Services",
	"1204": "Call Centre & Customer Service",
	"1206": "Construction",
	"1209": "Engineering",
	"1210": "Government & Defence",
	"1211": "Healthcare & Medical",
	"1212": "Hospitality & Tourism",
	"1214": "Insurance & Superannuation",
	"1216": "Legal",
	"1220": "Real Estate & Property",
	"1223": "Science & Technology",
	"1225": "Trades & Services",
	"6008": "Marketing & Communications",
	"6043": "Retail & Consumer Products",
	"6058": "Mining, Resources & Energy",
	"6076": "Consulting & Strategy",
	"6092": "Manufacturing, Transport & Logistics",
	"6123": "Education & Training",
	"6163": "Community Services & Development",
	"6205": "Farming, Animals & Conservation",
	"6246": "Sport & Recreation",
	"6251": "Administration & Office Support",
	"6261": "Self Employment",
	"6263": "Design & Architecture",
	"6281": "Information & Communication Technology",
	"6304": "Advertising, Arts & Media",
	"6317": "Human Resources & Recruitment",
	"6362": "Sales",
	"7019": "CEO & General Management"
}