[ {
	"name": "Mr. Employer",
	"email" : "employer@wanawork.ie",
	"password" : "123456",
	"roles" : [ "ROLE_EMPLOYER" ]
}, {
	"name": "Mr. Employee",
	"email" : "employee@wanawork.ie",
	"password" : "123456",
	"roles" : [ "ROLE_EMPLOYEE" ],
	"profile" : {
		"title" : "MR",
		"dob" : "21-08-1988",
		"address" : "76 red arches avenue, the coast",
		"city" : "Dublin",
		"county" : "Dublin",
		"country" : "Ireland",
		"name" : "Ilya biryukov",
		"phoneNumber" : "0862325482",
		"languages" : [ "English", "Russian" ]
	}
}, {
	"name": "Mr. Admin",
	"email" : "admin@wanawork.ie",
	"password" : "123456",
	"roles" : [ "ROLE_ADMIN" ]
} ]